# compile vhdl design source files
vhdl xil_defaultlib  \
"../../../../finalProject.srcs/sources_1/new/CordicComp.vhd" \
"../../../../finalProject.srcs/sources_1/new/cordic.vhd" \
"../../../../finalProject.srcs/sim_1/new/cordic_tb.vhd" \

# Do not sort compile order
nosort
